{
  "profiles": {
    "ofmxSnapshotDiffTool": {
      "commandName": "Project",
      "commandLineArgs": "-d ..\\ofmx\\ -r LF -b -8;20;40;55 -f organizations;airports;airspaces;units;navaids\n"
    }
  }
}